{
  "entrypoint": "index.html",
  "shell": "src/visor-app.html",
  "fragments": [

    "src/aliaslist-app.html",
    "src/customerlist-app.html",
    "src/transfer-app.html",
    "src/login-app.html",
    "src/register-app.html",
    "src/logout-app.html",
    "src/welcome-app.html",
    "src/view404-app.html"
  ],
  "sources": [
    "src/**/*",
    "images/**/*"
  ],
  "extraDependencies": [
    "manifest.json",
    "bower_components/webcomponentsjs/*.js"
  ],
  "lint": {
    "rules": ["polymer-2"]
  }
}
